{
        "roomId": "demo1",
        "socketUserMap": [
                {
                        "id": "demo",
                        "uId": "demo"
                },
                {
                        "id": "demo",
                        "uId": "demo"
                }
        ],
        "gameId": 1
}